P 306 476
P 306 480
P 306 484
P 306 488
P 306 492
P 306 496
P 306 500
P 306 504
P 306 508
P 306 512
P 306 516
P 306 520
P 306 524
P 306 528
P 306 532
P 306 536
P 306 540
P 306 544
P 306 548
P 306 552
P 282 552
P 282 548
P 282 544
P 282 540
P 282 536
P 282 532
P 282 528
P 282 524
P 282 520
P 282 516
P 282 512
P 282 508
P 282 504
P 282 500
P 282 496
P 282 492
P 282 488
P 282 484
P 282 480
P 282 476
P 366 526
P 366 530
P 366 534
P 366 538
P 366 542
P 366 546
P 366 550
P 366 554
P 366 558
P 366 562
P 366 566
P 366 570
P 354 570
P 354 566
P 354 562
P 354 558
P 354 554
P 354 550
P 354 546
P 354 542
P 354 538
P 354 534
P 354 530
P 354 526
P 394 526
P 394 530
P 394 534
P 394 538
P 394 542
P 394 546
P 394 550
P 394 554
P 394 558
P 394 562
P 394 566
P 394 570
P 382 570
P 382 566
P 382 562
P 382 558
P 382 554
P 382 550
P 382 546
P 382 542
P 382 538
P 382 534
P 382 530
P 382 526
P 422 526
P 422 530
P 422 534
P 422 538
P 422 542
P 422 546
P 422 550
P 422 554
P 422 558
P 422 562
P 422 566
P 422 570
P 410 570
P 410 566
P 410 562
P 410 558
P 410 554
P 410 550
P 410 546
P 410 542
P 410 538
P 410 534
P 410 530
P 410 526
P 450 526
P 450 530
P 450 534
P 450 538
P 450 542
P 450 546
P 450 550
P 450 554
P 450 558
P 450 562
P 450 566
P 450 570
P 438 570
P 438 566
P 438 562
P 438 558
P 438 554
P 438 550
P 438 546
P 438 542
P 438 538
P 438 534
P 438 530
P 438 526
P 478 526
P 478 530
P 478 534
P 478 538
P 478 542
P 478 546
P 478 550
P 478 554
P 478 558
P 478 562
P 478 566
P 478 570
P 466 570
P 466 566
P 466 562
P 466 558
P 466 554
P 466 550
P 466 546
P 466 542
P 466 538
P 466 534
P 466 530
P 466 526
P 506 526
P 506 530
P 506 534
P 506 538
P 506 542
P 506 546
P 506 550
P 506 554
P 506 558
P 506 562
P 506 566
P 506 570
P 494 570
P 494 566
P 494 562
P 494 558
P 494 554
P 494 550
P 494 546
P 494 542
P 494 538
P 494 534
P 494 530
P 494 526
P 534 526
P 534 530
P 534 534
P 534 538
P 534 542
P 534 546
P 534 550
P 534 554
P 534 558
P 534 562
P 534 566
P 534 570
P 522 570
P 522 566
P 522 562
P 522 558
P 522 554
P 522 550
P 522 546
P 522 542
P 522 538
P 522 534
P 522 530
P 522 526
P 562 526
P 562 530
P 562 534
P 562 538
P 562 542
P 562 546
P 562 550
P 562 554
P 562 558
P 562 562
P 562 566
P 562 570
P 550 570
P 550 566
P 550 562
P 550 558
P 550 554
P 550 550
P 550 546
P 550 542
P 550 538
P 550 534
P 550 530
P 550 526
P 366 444
P 366 448
P 366 452
P 366 456
P 366 460
P 366 464
P 366 468
P 366 472
P 366 476
P 366 480
P 366 484
P 366 488
P 354 488
P 354 484
P 354 480
P 354 476
P 354 472
P 354 468
P 354 464
P 354 460
P 354 456
P 354 452
P 354 448
P 354 444
P 394 444
P 394 448
P 394 452
P 394 456
P 394 460
P 394 464
P 394 468
P 394 472
P 394 476
P 394 480
P 394 484
P 394 488
P 382 488
P 382 484
P 382 480
P 382 476
P 382 472
P 382 468
P 382 464
P 382 460
P 382 456
P 382 452
P 382 448
P 382 444
P 422 444
P 422 448
P 422 452
P 422 456
P 422 460
P 422 464
P 422 468
P 422 472
P 422 476
P 422 480
P 422 484
P 422 488
P 410 488
P 410 484
P 410 480
P 410 476
P 410 472
P 410 468
P 410 464
P 410 460
P 410 456
P 410 452
P 410 448
P 410 444
P 450 444
P 450 448
P 450 452
P 450 456
P 450 460
P 450 464
P 450 468
P 450 472
P 450 476
P 450 480
P 450 484
P 450 488
P 438 488
P 438 484
P 438 480
P 438 476
P 438 472
P 438 468
P 438 464
P 438 460
P 438 456
P 438 452
P 438 448
P 438 444
P 478 444
P 478 448
P 478 452
P 478 456
P 478 460
P 478 464
P 478 468
P 478 472
P 478 476
P 478 480
P 478 484
P 478 488
P 466 488
P 466 484
P 466 480
P 466 476
P 466 472
P 466 468
P 466 464
P 466 460
P 466 456
P 466 452
P 466 448
P 466 444
P 506 444
P 506 448
P 506 452
P 506 456
P 506 460
P 506 464
P 506 468
P 506 472
P 506 476
P 506 480
P 506 484
P 506 488
P 494 488
P 494 484
P 494 480
P 494 476
P 494 472
P 494 468
P 494 464
P 494 460
P 494 456
P 494 452
P 494 448
P 494 444
P 534 444
P 534 448
P 534 452
P 534 456
P 534 460
P 534 464
P 534 468
P 534 472
P 534 476
P 534 480
P 534 484
P 534 488
P 522 488
P 522 484
P 522 480
P 522 476
P 522 472
P 522 468
P 522 464
P 522 460
P 522 456
P 522 452
P 522 448
P 522 444
P 562 444
P 562 448
P 562 452
P 562 456
P 562 460
P 562 464
P 562 468
P 562 472
P 562 476
P 562 480
P 562 484
P 562 488
P 550 488
P 550 484
P 550 480
P 550 476
P 550 472
P 550 468
P 550 464
P 550 460
P 550 456
P 550 452
P 550 448
P 550 444
P 378 242
P 378 246
P 378 250
P 378 254
P 378 258
P 378 262
P 378 266
P 378 270
P 378 274
P 378 278
P 378 282
P 378 286
P 378 290
P 378 294
P 354 294
P 354 290
P 354 286
P 354 282
P 354 278
P 354 274
P 354 270
P 354 266
P 354 262
P 354 258
P 354 254
P 354 250
P 354 246
P 354 242
P 406 226
P 406 230
P 406 234
P 406 238
P 406 242
P 406 246
P 406 250
P 406 254
P 406 258
P 406 262
P 394 262
P 394 258
P 394 254
P 394 250
P 394 246
P 394 242
P 394 238
P 394 234
P 394 230
P 394 226
P 406 286
P 406 290
P 406 294
P 406 298
P 406 302
P 406 306
P 406 310
P 406 314
P 406 318
P 406 322
P 394 322
P 394 318
P 394 314
P 394 310
P 394 306
P 394 302
P 394 298
P 394 294
P 394 290
P 394 286
P 280 40
P 280 44
P 280 48
P 280 52
P 280 56
P 280 60
P 280 64
P 280 68
P 280 72
P 280 76
P 268 76
P 268 72
P 268 68
P 268 64
P 268 60
P 268 56
P 268 52
P 268 48
P 268 44
P 268 40
P 336 534
P 336 538
P 336 542
P 336 546
P 336 550
P 336 554
P 336 558
P 336 562
P 336 566
P 336 570
P 324 570
P 324 566
P 324 562
P 324 558
P 324 554
P 324 550
P 324 546
P 324 542
P 324 538
P 324 534
P 336 466
P 336 470
P 336 474
P 336 478
P 336 482
P 336 486
P 336 490
P 336 494
P 336 498
P 336 502
P 324 502
P 324 498
P 324 494
P 324 490
P 324 486
P 324 482
P 324 478
P 324 474
P 324 470
P 324 466
P 434 226
P 434 230
P 434 234
P 434 238
P 434 242
P 434 246
P 434 250
P 434 254
P 434 258
P 434 262
P 422 262
P 422 258
P 422 254
P 422 250
P 422 246
P 422 242
P 422 238
P 422 234
P 422 230
P 422 226
P 436 286
P 436 290
P 436 294
P 436 298
P 436 302
P 436 306
P 436 310
P 436 314
P 436 318
P 436 322
P 424 322
P 424 318
P 424 314
P 424 310
P 424 306
P 424 302
P 424 298
P 424 294
P 424 290
P 424 286
P 130 432
P 134 432
P 138 432
P 142 432
P 146 432
P 150 432
P 154 432
P 158 432
P 162 432
P 166 432
P 166 444
P 162 444
P 158 444
P 154 444
P 150 444
P 146 444
P 142 444
P 138 444
P 134 444
P 130 444
P 214 540
P 214 544
P 214 548
P 214 552
P 214 556
P 214 560
P 214 564
P 214 568
P 214 572
P 214 576
P 202 576
P 202 572
P 202 568
P 202 564
P 202 560
P 202 556
P 202 552
P 202 548
P 202 544
P 202 540
P 182 540
P 182 544
P 182 548
P 182 552
P 182 556
P 182 560
P 182 564
P 182 568
P 182 572
P 182 576
P 170 576
P 170 572
P 170 568
P 170 564
P 170 560
P 170 556
P 170 552
P 170 548
P 170 544
P 170 540
P 214 468
P 214 472
P 214 476
P 214 480
P 214 484
P 214 488
P 214 492
P 214 496
P 214 500
P 214 504
P 214 508
P 214 512
P 202 512
P 202 508
P 202 504
P 202 500
P 202 496
P 202 492
P 202 488
P 202 484
P 202 480
P 202 476
P 202 472
P 202 468
P 248 468
P 248 472
P 248 476
P 248 480
P 248 484
P 248 488
P 248 492
P 248 496
P 248 500
P 248 504
P 236 504
P 236 500
P 236 496
P 236 492
P 236 488
P 236 484
P 236 480
P 236 476
P 236 472
P 236 468
P 186 468
P 186 472
P 186 476
P 186 480
P 186 484
P 186 488
P 186 492
P 186 496
P 186 500
P 186 504
P 186 508
P 186 512
P 174 512
P 174 508
P 174 504
P 174 500
P 174 496
P 174 492
P 174 488
P 174 484
P 174 480
P 174 476
P 174 472
P 174 468
P 110 540
P 110 544
P 110 548
P 110 552
P 110 556
P 110 560
P 110 564
P 98 564
P 98 560
P 98 556
P 98 552
P 98 548
P 98 544
P 98 540
P 46 540
P 46 544
P 46 548
P 46 552
P 46 556
P 46 560
P 46 564
P 34 564
P 34 560
P 34 556
P 34 552
P 34 548
P 34 544
P 34 540
P 306 460
P 286 460
P 248 540
P 248 544
P 248 548
P 248 552
P 248 556
P 248 560
P 248 564
P 248 568
P 248 572
P 248 576
P 236 576
P 236 572
P 236 568
P 236 564
P 236 560
P 236 556
P 236 552
P 236 548
P 236 544
P 236 540
P 336 450
P 332 450
P 328 450
P 324 450
P 320 450
P 316 450
P 312 450
P 308 450
P 448 422
P 444 422
P 440 422
P 436 422
P 432 422
P 428 422
P 424 422
P 420 422
P 420 410
P 424 410
P 428 410
P 432 410
P 436 410
P 440 410
P 444 410
P 448 410
P 254 40
P 254 44
P 254 48
P 254 52
P 254 56
P 254 60
P 254 64
P 254 68
P 254 72
P 254 76
P 242 76
P 242 72
P 242 68
P 242 64
P 242 60
P 242 56
P 242 52
P 242 48
P 242 44
P 242 40
P 172 244
P 172 248
P 172 252
P 172 256
P 172 260
P 172 264
P 172 268
P 172 272
P 172 276
P 172 280
P 172 284
P 172 288
P 160 288
P 160 284
P 160 280
P 160 276
P 160 272
P 160 268
P 160 264
P 160 260
P 160 256
P 160 252
P 160 248
P 160 244
P 172 192
P 172 196
P 172 200
P 172 204
P 172 208
P 172 212
P 172 216
P 172 220
P 172 224
P 172 228
P 172 232
P 172 236
P 160 236
P 160 232
P 160 228
P 160 224
P 160 220
P 160 216
P 160 212
P 160 208
P 160 204
P 160 200
P 160 196
P 160 192
P 172 140
P 172 144
P 172 148
P 172 152
P 172 156
P 172 160
P 172 164
P 172 168
P 172 172
P 172 176
P 172 180
P 172 184
P 160 184
P 160 180
P 160 176
P 160 172
P 160 168
P 160 164
P 160 160
P 160 156
P 160 152
P 160 148
P 160 144
P 160 140
P 172 88
P 172 92
P 172 96
P 172 100
P 172 104
P 172 108
P 172 112
P 172 116
P 172 120
P 172 124
P 172 128
P 172 132
P 160 132
P 160 128
P 160 124
P 160 120
P 160 116
P 160 112
P 160 108
P 160 104
P 160 100
P 160 96
P 160 92
P 160 88
P 172 36
P 172 40
P 172 44
P 172 48
P 172 52
P 172 56
P 172 60
P 172 64
P 172 68
P 172 72
P 172 76
P 172 80
P 160 80
P 160 76
P 160 72
P 160 68
P 160 64
P 160 60
P 160 56
P 160 52
P 160 48
P 160 44
P 160 40
P 160 36
P 110 256
P 110 260
P 110 264
P 110 268
P 110 272
P 110 276
P 110 280
P 110 284
P 110 288
P 110 292
P 98 292
P 98 288
P 98 284
P 98 280
P 98 276
P 98 272
P 98 268
P 98 264
P 98 260
P 98 256
P 128 204
P 128 208
P 128 212
P 128 216
P 128 220
P 128 224
P 128 228
P 128 232
P 128 236
P 128 240
P 116 240
P 116 236
P 116 232
P 116 228
P 116 224
P 116 220
P 116 216
P 116 212
P 116 208
P 116 204
P 138 152
P 138 156
P 138 160
P 138 164
P 138 168
P 138 172
P 138 176
P 138 180
P 138 184
P 138 188
P 126 188
P 126 184
P 126 180
P 126 176
P 126 172
P 126 168
P 126 164
P 126 160
P 126 156
P 126 152
P 148 100
P 148 104
P 148 108
P 148 112
P 148 116
P 148 120
P 148 124
P 148 128
P 148 132
P 148 136
P 136 136
P 136 132
P 136 128
P 136 124
P 136 120
P 136 116
P 136 112
P 136 108
P 136 104
P 136 100
P 148 48
P 148 52
P 148 56
P 148 60
P 148 64
P 148 68
P 148 72
P 148 76
P 148 80
P 148 84
P 136 84
P 136 80
P 136 76
P 136 72
P 136 68
P 136 64
P 136 60
P 136 56
P 136 52
P 136 48
P 68 86
P 68 90
P 68 94
P 68 98
P 68 102
P 68 106
P 68 110
P 68 114
P 68 118
P 68 122
P 68 126
P 68 130
P 56 130
P 56 126
P 56 122
P 56 118
P 56 114
P 56 110
P 56 106
P 56 102
P 56 98
P 56 94
P 56 90
P 56 86
P 84 196
P 84 200
P 84 204
P 84 208
P 84 212
P 84 216
P 84 220
P 84 224
P 84 228
P 84 232
P 84 236
P 84 240
P 72 240
P 72 236
P 72 232
P 72 228
P 72 224
P 72 220
P 72 216
P 72 212
P 72 208
P 72 204
P 72 200
P 72 196
P 72 140
P 72 144
P 72 148
P 72 152
P 72 156
P 72 160
P 72 164
P 72 168
P 72 172
P 72 176
P 72 180
P 72 184
P 60 184
P 60 180
P 60 176
P 60 172
P 60 168
P 60 164
P 60 160
P 60 156
P 60 152
P 60 148
P 60 144
P 60 140
P 84 252
P 84 256
P 84 260
P 84 264
P 84 268
P 84 272
P 84 276
P 84 280
P 84 284
P 84 288
P 84 292
P 84 296
P 72 296
P 72 292
P 72 288
P 72 284
P 72 280
P 72 276
P 72 272
P 72 268
P 72 264
P 72 260
P 72 256
P 72 252
P 28 86
P 28 90
P 28 94
P 28 98
P 28 102
P 28 106
P 28 110
P 28 114
P 28 118
P 28 122
P 28 126
P 28 130
P 16 130
P 16 126
P 16 122
P 16 118
P 16 114
P 16 110
P 16 106
P 16 102
P 16 98
P 16 94
P 16 90
P 16 86
P 40 152
P 40 156
P 40 160
P 40 164
P 40 168
P 40 172
P 40 176
P 40 180
P 40 184
P 40 188
P 40 192
P 40 196
P 28 196
P 28 192
P 28 188
P 28 184
P 28 180
P 28 176
P 28 172
P 28 168
P 28 164
P 28 160
P 28 156
P 28 152
P 52 214
P 52 218
P 52 222
P 52 226
P 52 230
P 52 234
P 52 238
P 52 242
P 52 246
P 52 250
P 52 254
P 52 258
P 40 258
P 40 254
P 40 250
P 40 246
P 40 242
P 40 238
P 40 234
P 40 230
P 40 226
P 40 222
P 40 218
P 40 214
P 46 466
P 46 470
P 46 474
P 46 478
P 46 482
P 46 486
P 46 490
P 46 494
P 46 498
P 46 502
P 46 506
P 46 510
P 34 510
P 34 506
P 34 502
P 34 498
P 34 494
P 34 490
P 34 486
P 34 482
P 34 478
P 34 474
P 34 470
P 34 466
P 24 466
P 24 470
P 24 474
P 24 478
P 24 482
P 24 486
P 24 490
P 24 494
P 24 498
P 24 502
P 24 506
P 24 510
P 12 510
P 12 506
P 12 502
P 12 498
P 12 494
P 12 490
P 12 486
P 12 482
P 12 478
P 12 474
P 12 470
P 12 466
P 106 304
P 106 308
P 106 312
P 106 316
P 106 320
P 106 324
P 106 328
P 106 332
P 106 336
P 106 340
P 94 340
P 94 336
P 94 332
P 94 328
P 94 324
P 94 320
P 94 316
P 94 312
P 94 308
P 94 304
P 68 466
P 68 470
P 68 474
P 68 478
P 68 482
P 68 486
P 68 490
P 68 494
P 68 498
P 68 502
P 68 506
P 68 510
P 56 510
P 56 506
P 56 502
P 56 498
P 56 494
P 56 490
P 56 486
P 56 482
P 56 478
P 56 474
P 56 470
P 56 466
P 108 466
P 108 470
P 108 474
P 108 478
P 108 482
P 108 486
P 108 490
P 108 494
P 96 494
P 96 490
P 96 486
P 96 482
P 96 478
P 96 474
P 96 470
P 96 466
P 18 432
P 22 432
P 26 432
P 30 432
P 34 432
P 38 432
P 42 432
P 46 432
P 50 432
P 54 432
P 54 444
P 50 444
P 46 444
P 42 444
P 38 444
P 34 444
P 30 444
P 26 444
P 22 444
P 18 444
P 74 432
P 78 432
P 82 432
P 86 432
P 90 432
P 94 432
P 98 432
P 102 432
P 106 432
P 110 432
P 110 444
P 106 444
P 102 444
P 98 444
P 94 444
P 90 444
P 86 444
P 82 444
P 78 444
P 74 444
P 144 8
P 140 8
P 136 8
P 132 8
P 128 8
P 124 8
P 120 8
P 116 8
P 112 8
P 108 8
P 104 8
P 100 8
P 96 8
P 92 8
P 88 8
P 84 8
P 80 8
P 76 8
P 72 8
P 68 8
P 64 8
P 60 8
P 56 8
P 52 8
P 48 8
P 44 8
P 40 8
P 36 8
P 32 8
P 28 8
P 24 8
P 20 8
P 144 12
P 140 12
P 136 12
P 132 12
P 128 12
P 124 12
P 120 12
P 116 12
P 112 12
P 108 12
P 104 12
P 100 12
P 96 12
P 92 12
P 88 12
P 84 12
P 80 12
P 76 12
P 72 12
P 68 12
P 64 12
P 60 12
P 56 12
P 52 12
P 48 12
P 44 12
P 40 12
P 36 12
P 32 12
P 28 12
P 24 12
P 20 12
P 144 16
P 140 16
P 136 16
P 132 16
P 128 16
P 124 16
P 120 16
P 116 16
P 112 16
P 108 16
P 104 16
P 100 16
P 96 16
P 92 16
P 88 16
P 84 16
P 80 16
P 76 16
P 72 16
P 68 16
P 64 16
P 60 16
P 56 16
P 52 16
P 48 16
P 44 16
P 40 16
P 36 16
P 32 16
P 28 16
P 24 16
P 20 16
P 76 406
P 80 406
P 84 406
P 88 406
P 92 406
P 96 406
P 100 406
P 104 406
P 104 418
P 100 418
P 96 418
P 92 418
P 88 418
P 84 418
P 80 418
P 76 418
P 28 318
P 28 322
P 28 326
P 28 330
P 28 334
P 28 338
P 28 342
P 28 346
P 16 346
P 16 342
P 16 338
P 16 334
P 16 330
P 16 326
P 16 322
P 16 318
P 26 540
P 26 544
P 26 548
P 26 552
P 26 556
P 26 560
P 26 564
P 14 564
P 14 560
P 14 556
P 14 552
P 14 548
P 14 544
P 14 540
P 20 406
P 24 406
P 28 406
P 32 406
P 36 406
P 40 406
P 44 406
P 44 418
P 40 418
P 36 418
P 32 418
P 28 418
P 24 418
P 20 418
P 28 362
P 28 366
P 28 370
P 28 374
P 28 378
P 28 382
P 28 386
P 28 390
P 16 390
P 16 386
P 16 382
P 16 378
P 16 374
P 16 370
P 16 366
P 16 362
P 106 364
P 106 368
P 106 372
P 106 376
P 106 380
P 106 384
P 106 388
P 94 388
P 94 384
P 94 380
P 94 376
P 94 372
P 94 368
P 94 364
P 80 364
P 80 368
P 80 372
P 80 376
P 80 380
P 80 384
P 80 388
P 68 388
P 68 384
P 68 380
P 68 376
P 68 372
P 68 368
P 68 364
P 56 310
P 56 314
P 56 318
P 56 322
P 56 326
P 56 330
P 56 334
P 44 334
P 44 330
P 44 326
P 44 322
P 44 318
P 44 314
P 44 310
P 70 540
P 70 544
P 70 548
P 70 552
P 70 556
P 70 560
P 70 564
P 58 564
P 58 560
P 58 556
P 58 552
P 58 548
P 58 544
P 58 540
P 28 214
P 28 218
P 28 222
P 28 226
P 28 230
P 28 234
P 28 238
P 28 242
P 28 246
P 28 250
P 16 250
P 16 246
P 16 242
P 16 238
P 16 234
P 16 230
P 16 226
P 16 222
P 16 218
P 16 214
P 16 284
P 16 304
P 62 392
P 42 392
P 172 300
P 172 304
P 172 308
P 172 312
P 172 316
P 172 320
P 172 324
P 172 328
P 160 328
P 160 324
P 160 320
P 160 316
P 160 312
P 160 308
P 160 304
P 160 300
P 464 36
P 464 40
P 464 44
P 464 48
P 464 52
P 464 56
P 464 60
P 464 64
P 464 68
P 464 72
P 452 72
P 452 68
P 452 64
P 452 60
P 452 56
P 452 52
P 452 48
P 452 44
P 452 40
P 452 36
P 496 36
P 496 40
P 496 44
P 496 48
P 496 52
P 496 56
P 496 60
P 496 64
P 496 68
P 496 72
P 484 72
P 484 68
P 484 64
P 484 60
P 484 56
P 484 52
P 484 48
P 484 44
P 484 40
P 484 36
P 464 90
P 464 94
P 464 98
P 464 102
P 464 106
P 464 110
P 464 114
P 464 118
P 464 122
P 464 126
P 452 126
P 452 122
P 452 118
P 452 114
P 452 110
P 452 106
P 452 102
P 452 98
P 452 94
P 452 90
P 496 90
P 496 94
P 496 98
P 496 102
P 496 106
P 496 110
P 496 114
P 496 118
P 496 122
P 496 126
P 484 126
P 484 122
P 484 118
P 484 114
P 484 110
P 484 106
P 484 102
P 484 98
P 484 94
P 484 90
P 464 146
P 464 150
P 464 154
P 464 158
P 464 162
P 464 166
P 464 170
P 464 174
P 464 178
P 464 182
P 452 182
P 452 178
P 452 174
P 452 170
P 452 166
P 452 162
P 452 158
P 452 154
P 452 150
P 452 146
P 496 146
P 496 150
P 496 154
P 496 158
P 496 162
P 496 166
P 496 170
P 496 174
P 496 178
P 496 182
P 484 182
P 484 178
P 484 174
P 484 170
P 484 166
P 484 162
P 484 158
P 484 154
P 484 150
P 484 146
P 496 194
P 496 198
P 496 202
P 496 206
P 496 210
P 496 214
P 496 218
P 484 218
P 484 214
P 484 210
P 484 206
P 484 202
P 484 198
P 484 194
P 462 192
P 462 196
P 462 200
P 462 204
P 462 208
P 462 212
P 462 216
P 462 220
P 450 220
P 450 216
P 450 212
P 450 208
P 450 204
P 450 200
P 450 196
P 450 192
P 472 212
P 472 192
P 568 38
P 568 42
P 568 46
P 568 50
P 568 54
P 568 58
P 568 62
P 568 66
P 568 70
P 568 74
P 556 74
P 556 70
P 556 66
P 556 62
P 556 58
P 556 54
P 556 50
P 556 46
P 556 42
P 556 38
P 556 90
P 556 94
P 556 98
P 556 102
P 556 106
P 556 110
P 556 114
P 556 118
P 556 122
P 556 126
P 544 126
P 544 122
P 544 118
P 544 114
P 544 110
P 544 106
P 544 102
P 544 98
P 544 94
P 544 90
P 544 140
P 544 144
P 544 148
P 544 152
P 544 156
P 544 160
P 544 164
P 544 168
P 544 172
P 544 176
P 532 176
P 532 172
P 532 168
P 532 164
P 532 160
P 532 156
P 532 152
P 532 148
P 532 144
P 532 140
P 540 182
P 540 186
P 540 190
P 540 194
P 540 198
P 540 202
P 540 206
P 540 210
P 540 214
P 540 218
P 528 218
P 528 214
P 528 210
P 528 206
P 528 202
P 528 198
P 528 194
P 528 190
P 528 186
P 528 182
P 564 8
P 560 8
P 556 8
P 552 8
P 548 8
P 544 8
P 540 8
P 536 8
P 532 8
P 528 8
P 524 8
P 520 8
P 516 8
P 512 8
P 508 8
P 504 8
P 500 8
P 496 8
P 492 8
P 488 8
P 484 8
P 480 8
P 476 8
P 472 8
P 468 8
P 464 8
P 460 8
P 456 8
P 452 8
P 448 8
P 444 8
P 440 8
P 564 12
P 560 12
P 556 12
P 552 12
P 548 12
P 544 12
P 540 12
P 536 12
P 532 12
P 528 12
P 524 12
P 520 12
P 516 12
P 512 12
P 508 12
P 504 12
P 500 12
P 496 12
P 492 12
P 488 12
P 484 12
P 480 12
P 476 12
P 472 12
P 468 12
P 464 12
P 460 12
P 456 12
P 452 12
P 448 12
P 444 12
P 440 12
P 564 16
P 560 16
P 556 16
P 552 16
P 548 16
P 544 16
P 540 16
P 536 16
P 532 16
P 528 16
P 524 16
P 520 16
P 516 16
P 512 16
P 508 16
P 504 16
P 500 16
P 496 16
P 492 16
P 488 16
P 484 16
P 480 16
P 476 16
P 472 16
P 468 16
P 464 16
P 460 16
P 456 16
P 452 16
P 448 16
P 444 16
P 440 16
P 482 272
P 482 276
P 482 280
P 482 284
P 482 288
P 482 292
P 482 296
P 482 300
P 482 304
P 482 308
P 482 312
P 482 316
P 470 316
P 470 312
P 470 308
P 470 304
P 470 300
P 470 296
P 470 292
P 470 288
P 470 284
P 470 280
P 470 276
P 470 272
P 514 276
P 514 280
P 514 284
P 514 288
P 514 292
P 514 296
P 514 300
P 514 304
P 502 304
P 502 300
P 502 296
P 502 292
P 502 288
P 502 284
P 502 280
P 502 276
P 516 216
P 516 220
P 516 224
P 516 228
P 516 232
P 516 236
P 516 240
P 516 244
P 516 248
P 516 252
P 504 252
P 504 248
P 504 244
P 504 240
P 504 236
P 504 232
P 504 228
P 504 224
P 504 220
P 504 216
P 196 32
P 196 36
P 196 40
P 196 44
P 196 48
P 196 52
P 196 56
P 196 60
P 196 64
P 196 68
P 196 72
P 196 76
P 184 76
P 184 72
P 184 68
P 184 64
P 184 60
P 184 56
P 184 52
P 184 48
P 184 44
P 184 40
P 184 36
P 184 32
P 196 84
P 196 88
P 196 92
P 196 96
P 196 100
P 196 104
P 196 108
P 196 112
P 196 116
P 196 120
P 196 124
P 196 128
P 184 128
P 184 124
P 184 120
P 184 116
P 184 112
P 184 108
P 184 104
P 184 100
P 184 96
P 184 92
P 184 88
P 184 84
P 196 136
P 196 140
P 196 144
P 196 148
P 196 152
P 196 156
P 196 160
P 196 164
P 196 168
P 196 172
P 196 176
P 196 180
P 184 180
P 184 176
P 184 172
P 184 168
P 184 164
P 184 160
P 184 156
P 184 152
P 184 148
P 184 144
P 184 140
P 184 136
P 196 188
P 196 192
P 196 196
P 196 200
P 196 204
P 196 208
P 196 212
P 196 216
P 196 220
P 196 224
P 196 228
P 196 232
P 184 232
P 184 228
P 184 224
P 184 220
P 184 216
P 184 212
P 184 208
P 184 204
P 184 200
P 184 196
P 184 192
P 184 188
P 228 316
P 228 320
P 228 324
P 228 328
P 228 332
P 228 336
P 228 340
P 228 344
P 228 348
P 228 352
P 216 352
P 216 348
P 216 344
P 216 340
P 216 336
P 216 332
P 216 328
P 216 324
P 216 320
P 216 316
P 210 328
P 210 348
P 420 54
P 420 58
P 420 62
P 420 66
P 420 70
P 420 74
P 420 78
P 420 82
P 408 82
P 408 78
P 408 74
P 408 70
P 408 66
P 408 62
P 408 58
P 408 54
P 420 94
P 420 98
P 420 102
P 420 106
P 420 110
P 420 114
P 420 118
P 420 122
P 408 122
P 408 118
P 408 114
P 408 110
P 408 106
P 408 102
P 408 98
P 408 94
P 420 134
P 420 138
P 420 142
P 420 146
P 420 150
P 420 154
P 420 158
P 420 162
P 408 162
P 408 158
P 408 154
P 408 150
P 408 146
P 408 142
P 408 138
P 408 134
P 392 54
P 392 58
P 392 62
P 392 66
P 392 70
P 392 74
P 392 78
P 392 82
P 380 82
P 380 78
P 380 74
P 380 70
P 380 66
P 380 62
P 380 58
P 380 54
P 392 94
P 392 98
P 392 102
P 392 106
P 392 110
P 392 114
P 392 118
P 392 122
P 380 122
P 380 118
P 380 114
P 380 110
P 380 106
P 380 102
P 380 98
P 380 94
P 392 134
P 392 138
P 392 142
P 392 146
P 392 150
P 392 154
P 392 158
P 392 162
P 380 162
P 380 158
P 380 154
P 380 150
P 380 146
P 380 142
P 380 138
P 380 134
P 368 54
P 368 58
P 368 62
P 368 66
P 368 70
P 368 74
P 368 78
P 368 82
P 356 82
P 356 78
P 356 74
P 356 70
P 356 66
P 356 62
P 356 58
P 356 54
P 368 94
P 368 98
P 368 102
P 368 106
P 368 110
P 368 114
P 368 118
P 368 122
P 356 122
P 356 118
P 356 114
P 356 110
P 356 106
P 356 102
P 356 98
P 356 94
P 368 134
P 368 138
P 368 142
P 368 146
P 368 150
P 368 154
P 368 158
P 368 162
P 356 162
P 356 158
P 356 154
P 356 150
P 356 146
P 356 142
P 356 138
P 356 134
P 396 170
P 400 170
P 404 170
P 408 170
P 412 170
P 416 170
P 420 170
P 424 170
P 424 182
P 420 182
P 416 182
P 412 182
P 408 182
P 404 182
P 400 182
P 396 182
P 200 318
P 200 322
P 200 326
P 200 330
P 200 334
P 200 338
P 200 342
P 200 346
P 200 350
P 200 354
P 188 354
P 188 350
P 188 346
P 188 342
P 188 338
P 188 334
P 188 330
P 188 326
P 188 322
P 188 318
P 140 366
P 140 370
P 140 374
P 140 378
P 140 382
P 140 386
P 140 390
P 140 394
P 128 394
P 128 390
P 128 386
P 128 382
P 128 378
P 128 374
P 128 370
P 128 366
P 196 246
P 196 250
P 196 254
P 196 258
P 196 262
P 196 266
P 196 270
P 196 274
P 196 278
P 196 282
P 196 286
P 196 290
P 184 290
P 184 286
P 184 282
P 184 278
P 184 274
P 184 270
P 184 266
P 184 262
P 184 258
P 184 254
P 184 250
P 184 246
P 398 348
P 398 352
P 398 356
P 398 360
P 398 364
P 398 368
P 398 372
P 398 376
P 398 380
P 398 384
P 386 384
P 386 380
P 386 376
P 386 372
P 386 368
P 386 364
P 386 360
P 386 356
P 386 352
P 386 348
P 366 348
P 366 352
P 366 356
P 366 360
P 366 364
P 366 368
P 366 372
P 366 376
P 366 380
P 366 384
P 366 388
P 366 392
P 342 392
P 342 388
P 342 384
P 342 380
P 342 376
P 342 372
P 342 368
P 342 364
P 342 360
P 342 356
P 342 352
P 342 348
P 492 344
P 488 344
P 484 344
P 480 344
P 476 344
P 472 344
P 468 344
P 464 344
P 460 344
P 456 344
P 456 332
P 460 332
P 464 332
P 468 332
P 472 332
P 476 332
P 480 332
P 484 332
P 488 332
P 492 332
P 558 342
P 554 342
P 550 342
P 546 342
P 542 342
P 538 342
P 534 342
P 530 342
P 526 342
P 522 342
P 522 330
P 526 330
P 530 330
P 534 330
P 538 330
P 542 330
P 546 330
P 550 330
P 554 330
P 558 330
P 492 372
P 488 372
P 484 372
P 480 372
P 476 372
P 472 372
P 468 372
P 464 372
P 460 372
P 456 372
P 452 372
P 448 372
P 448 360
P 452 360
P 456 360
P 460 360
P 464 360
P 468 360
P 472 360
P 476 360
P 480 360
P 484 360
P 488 360
P 492 360
P 558 372
P 554 372
P 550 372
P 546 372
P 542 372
P 538 372
P 534 372
P 530 372
P 526 372
P 522 372
P 518 372
P 514 372
P 514 360
P 518 360
P 522 360
P 526 360
P 530 360
P 534 360
P 538 360
P 542 360
P 546 360
P 550 360
P 554 360
P 558 360
P 314 340
P 314 344
P 314 348
P 314 352
P 314 356
P 314 360
P 314 364
P 314 368
P 302 368
P 302 364
P 302 360
P 302 356
P 302 352
P 302 348
P 302 344
P 302 340
P 314 392
P 314 396
P 314 400
P 314 404
P 314 408
P 314 412
P 314 416
P 314 420
P 302 420
P 302 416
P 302 412
P 302 408
P 302 404
P 302 400
P 302 396
P 302 392
P 282 340
P 282 344
P 282 348
P 282 352
P 282 356
P 282 360
P 282 364
P 282 368
P 270 368
P 270 364
P 270 360
P 270 356
P 270 352
P 270 348
P 270 344
P 270 340
P 280 392
P 280 396
P 280 400
P 280 404
P 280 408
P 280 412
P 280 416
P 280 420
P 268 420
P 268 416
P 268 412
P 268 408
P 268 404
P 268 400
P 268 396
P 268 392
P 492 400
P 488 400
P 484 400
P 480 400
P 476 400
P 472 400
P 468 400
P 464 400
P 464 388
P 468 388
P 472 388
P 476 388
P 480 388
P 484 388
P 488 388
P 492 388
P 558 400
P 554 400
P 550 400
P 546 400
P 542 400
P 538 400
P 534 400
P 530 400
P 530 388
P 534 388
P 538 388
P 542 388
P 546 388
P 550 388
P 554 388
P 558 388
P 548 276
P 548 280
P 548 284
P 548 288
P 548 292
P 548 296
P 548 300
P 548 304
P 548 308
P 548 312
P 548 316
P 548 320
P 536 320
P 536 316
P 536 312
P 536 308
P 536 304
P 536 300
P 536 296
P 536 292
P 536 288
P 536 284
P 536 280
P 536 276
P 224 32
P 224 36
P 224 40
P 224 44
P 224 48
P 224 52
P 224 56
P 224 60
P 224 64
P 224 68
P 224 72
P 224 76
P 212 76
P 212 72
P 212 68
P 212 64
P 212 60
P 212 56
P 212 52
P 212 48
P 212 44
P 212 40
P 212 36
P 212 32
P 224 84
P 224 88
P 224 92
P 224 96
P 224 100
P 224 104
P 224 108
P 224 112
P 224 116
P 224 120
P 224 124
P 224 128
P 212 128
P 212 124
P 212 120
P 212 116
P 212 112
P 212 108
P 212 104
P 212 100
P 212 96
P 212 92
P 212 88
P 212 84
P 224 136
P 224 140
P 224 144
P 224 148
P 224 152
P 224 156
P 224 160
P 224 164
P 224 168
P 224 172
P 224 176
P 224 180
P 212 180
P 212 176
P 212 172
P 212 168
P 212 164
P 212 160
P 212 156
P 212 152
P 212 148
P 212 144
P 212 140
P 212 136
P 224 188
P 224 192
P 224 196
P 224 200
P 224 204
P 224 208
P 224 212
P 224 216
P 224 220
P 224 224
P 224 228
P 224 232
P 212 232
P 212 228
P 212 224
P 212 220
P 212 216
P 212 212
P 212 208
P 212 204
P 212 200
P 212 196
P 212 192
P 212 188
P 224 240
P 224 244
P 224 248
P 224 252
P 224 256
P 224 260
P 224 264
P 224 268
P 224 272
P 224 276
P 224 280
P 224 284
P 212 284
P 212 280
P 212 276
P 212 272
P 212 268
P 212 264
P 212 260
P 212 256
P 212 252
P 212 248
P 212 244
P 212 240
P 280 102
P 280 106
P 280 110
P 280 114
P 280 118
P 280 122
P 280 126
P 280 130
P 280 134
P 280 138
P 280 142
P 280 146
P 268 146
P 268 142
P 268 138
P 268 134
P 268 130
P 268 126
P 268 122
P 268 118
P 268 114
P 268 110
P 268 106
P 268 102
P 326 112
P 326 116
P 326 120
P 326 124
P 326 128
P 326 132
P 326 136
P 326 140
P 326 144
P 326 148
P 314 148
P 314 144
P 314 140
P 314 136
P 314 132
P 314 128
P 314 124
P 314 120
P 314 116
P 314 112
P 290 224
P 290 228
P 290 232
P 290 236
P 290 240
P 290 244
P 290 248
P 290 252
P 290 256
P 290 260
P 278 260
P 278 256
P 278 252
P 278 248
P 278 244
P 278 240
P 278 236
P 278 232
P 278 228
P 278 224
P 308 40
P 308 44
P 308 48
P 308 52
P 308 56
P 308 60
P 308 64
P 308 68
P 308 72
P 308 76
P 308 80
P 308 84
P 296 84
P 296 80
P 296 76
P 296 72
P 296 68
P 296 64
P 296 60
P 296 56
P 296 52
P 296 48
P 296 44
P 296 40
P 336 42
P 336 46
P 336 50
P 336 54
P 336 58
P 336 62
P 336 66
P 336 70
P 336 74
P 336 78
P 336 82
P 336 86
P 324 86
P 324 82
P 324 78
P 324 74
P 324 70
P 324 66
P 324 62
P 324 58
P 324 54
P 324 50
P 324 46
P 324 42
P 280 170
P 280 174
P 280 178
P 280 182
P 280 186
P 280 190
P 280 194
P 268 194
P 268 190
P 268 186
P 268 182
P 268 178
P 268 174
P 268 170
P 354 8
P 350 8
P 346 8
P 342 8
P 338 8
P 334 8
P 330 8
P 326 8
P 322 8
P 318 8
P 314 8
P 310 8
P 306 8
P 302 8
P 298 8
P 294 8
P 290 8
P 286 8
P 282 8
P 278 8
P 274 8
P 270 8
P 266 8
P 262 8
P 258 8
P 254 8
P 250 8
P 246 8
P 242 8
P 238 8
P 234 8
P 230 8
P 354 12
P 350 12
P 346 12
P 342 12
P 338 12
P 334 12
P 330 12
P 326 12
P 322 12
P 318 12
P 314 12
P 310 12
P 306 12
P 302 12
P 298 12
P 294 12
P 290 12
P 286 12
P 282 12
P 278 12
P 274 12
P 270 12
P 266 12
P 262 12
P 258 12
P 254 12
P 250 12
P 246 12
P 242 12
P 238 12
P 234 12
P 230 12
P 354 16
P 350 16
P 346 16
P 342 16
P 338 16
P 334 16
P 330 16
P 326 16
P 322 16
P 318 16
P 314 16
P 310 16
P 306 16
P 302 16
P 298 16
P 294 16
P 290 16
P 286 16
P 282 16
P 278 16
P 274 16
P 270 16
P 266 16
P 262 16
P 258 16
P 254 16
P 250 16
P 246 16
P 242 16
P 238 16
P 234 16
P 230 16
P 270 272
P 270 276
P 270 280
P 270 284
P 270 288
P 270 292
P 270 296
P 270 300
P 270 304
P 270 308
P 270 312
P 270 316
P 258 316
P 258 312
P 258 308
P 258 304
P 258 300
P 258 296
P 258 292
P 258 288
P 258 284
P 258 280
P 258 276
P 258 272
P 290 272
P 290 276
P 290 280
P 290 284
P 290 288
P 290 292
P 290 296
P 290 300
P 278 300
P 278 296
P 278 292
P 278 288
P 278 284
P 278 280
P 278 276
P 278 272
P 310 272
P 310 276
P 310 280
P 310 284
P 310 288
P 310 292
P 310 296
P 310 300
P 298 300
P 298 296
P 298 292
P 298 288
P 298 284
P 298 280
P 298 276
P 298 272
P 334 224
P 334 228
P 334 232
P 334 236
P 334 240
P 334 244
P 334 248
P 334 252
P 322 252
P 322 248
P 322 244
P 322 240
P 322 236
P 322 232
P 322 228
P 322 224
P 322 290
P 322 266
P 334 266
P 334 290
P 316 216
P 316 236
P 310 224
P 310 228
P 310 232
P 310 236
P 310 240
P 310 244
P 310 248
P 310 252
P 310 256
P 310 260
P 298 260
P 298 256
P 298 252
P 298 248
P 298 244
P 298 240
P 298 236
P 298 232
P 298 228
P 298 224
P 12 156
P 324 184
P 512 416
P 292 564
P 572 588
P 520 588
P 456 588
P 396 588
P 332 588
P 268 588
P 204 588
P 140 588
P 76 588
P 12 588
P 220 380
P 220 384
P 220 388
P 220 392
P 220 396
P 220 400
P 220 404
P 220 408
P 220 412
P 220 416
P 220 420
P 220 424
P 208 424
P 208 420
P 208 416
P 208 412
P 208 408
P 208 404
P 208 400
P 208 396
P 208 392
P 208 388
P 208 384
P 208 380
P 144 468
P 144 472
P 144 476
P 144 480
P 144 484
P 144 488
P 144 492
P 144 496
P 144 500
P 144 504
P 144 508
P 144 512
P 132 512
P 132 508
P 132 504
P 132 500
P 132 496
P 132 492
P 132 488
P 132 484
P 132 480
P 132 476
P 132 472
P 132 468
P 144 524
P 144 528
P 144 532
P 144 536
P 144 540
P 144 544
P 144 548
P 144 552
P 144 556
P 144 560
P 144 564
P 144 568
P 132 568
P 132 564
P 132 560
P 132 556
P 132 552
P 132 548
P 132 544
P 132 540
P 132 536
P 132 532
P 132 528
P 132 524
P 568 220
P 568 224
P 568 228
P 568 232
P 568 236
P 568 240
P 568 244
P 568 248
P 568 252
P 568 256
P 568 260
P 568 264
P 556 264
P 556 260
P 556 256
P 556 252
P 556 248
P 556 244
P 556 240
P 556 236
P 556 232
P 556 228
P 556 224
P 556 220
J 126 156 136 104
E
